instruction.vcd
$date
  Sun May 22 09:25:22 2016
$end
$version
  GHDL v0
$end
$timescale
  1 fs
$end
$var reg 1 ! tb_clk $end
$var reg 1 " tb_clk1 $end
$var reg 1 # tb_clk2 $end
$var reg 1 $ tb_nrst $end
$var reg 1 % tb_nstart $end
$var reg 8 & instruction_reg_in[7:0] $end
$var reg 256 ' tb_control_signals[255:0] $end
$scope module cg0 $end
$var reg 1 ( clk $end
$var reg 1 ) clk1 $end
$var reg 1 * clk2 $end
$var reg 2 + state[1:0] $end
$upscope $end
$scope module is0 $end
$var reg 1 , clk1 $end
$var reg 1 - clk2 $end
$var reg 8 . input[7:0] $end
$var reg 1 / nrst $end
$var reg 1 0 nstart $end
$var reg 256 1 control_signals[255:0] $end
$var reg 4 2 instruction_lo[3:0] $end
$var reg 8 3 instruction_high[7:0] $end
$var reg 256 4 control_lines[255:0] $end
$var reg 8 5 instruction[7:0] $end
$var reg 1 6 nlir $end
$var reg 1 7 nhalt $end
$var reg 1 8 ctr_clk $end
$var reg 1 9 ctr_reset $end
$var reg 1 : nlir_latch $end
$scope module ctr0 $end
$var reg 1 ; clk $end
$var reg 4 < output[3:0] $end
$var reg 1 = nreset $end
$var reg 4 > reg[3:0] $end
$upscope $end
$scope module dec0 $end
$var reg 8 ? input[7:0] $end
$var reg 256 @ output[255:0] $end
$upscope $end
$upscope $end
$enddefinitions $end
#0
1!
U"
U#
1$
1%
bUUUUUUUU &
b1111111111111111111111111111111111111111111111111111111111111111111111111111111111111111111111111111111111111111111111111111111111111111111111111111111111111111111111111111111111111111111111111111111111111111111111111111111111111111111111111111111111111110 '
1(
U)
U*
b00 +
U,
U-
bUUUUUUUU .
1/
10
b1111111111111111111111111111111111111111111111111111111111111111111111111111111111111111111111111111111111111111111111111111111111111111111111111111111111111111111111111111111111111111111111111111111111111111111111111111111111111111111111111111111111111110 1
b0000 2
b00000000 3
b1111111111111111111111111111111111111111111111111111111111111111111111111111111111111111111111111111111111111111111111111111111111111111111111111111111111111111111111111111111111111111111111111111111111111111111111111111111111111111111111111111111111111110 4
b00000000 5
16
07
08
09
0:
0;
b0000 <
0=
b0000 >
b00000000 ?
b1111111111111111111111111111111111111111111111111111111111111111111111111111111111111111111111111111111111111111111111111111111111111111111111111111111111111111111111111111111111111111111111111111111111111111111111111111111111111111111111111111111111111110 @
#5000000
0!
0(
#10000000
1!
0"
0#
0$
b00001111 &
1(
0)
0*
b01 +
0,
0-
b00001111 .
0/
19
1=
#15000000
0!
0(
#20000000
1!
1"
1(
1)
b10 +
1,
1:
#25000000
0!
0(
#30000000
1!
0"
1(
0)
b11 +
0,
#35000000
0!
0(
#40000000
1!
1#
1(
1*
b00 +
1-
#45000000
0!
0(
#50000000
1!
0#
1$
0%
b1111111111111111111111111111111111111111111111111111111111111111111111111111111111111111111111111111111111111111111111111111111111111111111111111111111111111111111111111111111111111111111111111111111111111111111111111111111111111111111111111111111111111101 '
1(
0*
b01 +
0-
1/
00
b1111111111111111111111111111111111111111111111111111111111111111111111111111111111111111111111111111111111111111111111111111111111111111111111111111111111111111111111111111111111111111111111111111111111111111111111111111111111111111111111111111111111111101 1
b0001 2
b1111111111111111111111111111111111111111111111111111111111111111111111111111111111111111111111111111111111111111111111111111111111111111111111111111111111111111111111111111111111111111111111111111111111111111111111111111111111111111111111111111111111111101 4
b00000001 5
06
17
18
1;
b0001 <
b0001 >
b00000001 ?
b1111111111111111111111111111111111111111111111111111111111111111111111111111111111111111111111111111111111111111111111111111111111111111111111111111111111111111111111111111111111111111111111111111111111111111111111111111111111111111111111111111111111111101 @
#55000000
0!
0(
#60000000
1!
1"
1(
1)
b10 +
1,
09
0:
0=
#65000000
0!
0(
#70000000
1!
0"
1(
0)
b11 +
0,
#75000000
0!
0(
#80000000
1!
1#
1(
1*
b00 +
1-
08
0;
#85000000
0!
0(
#90000000
1!
0#
1%
b1111111111111111111111111111111111111111111111111111111111111111111111111111111111111111111111111111111111111111111111111111111111111111111111111111111111111111111111111111111111111111111111111111111111111111111111111111111111111111110111111111111111111111 '
1(
0*
b01 +
0-
10
b1111111111111111111111111111111111111111111111111111111111111111111111111111111111111111111111111111111111111111111111111111111111111111111111111111111111111111111111111111111111111111111111111111111111111111111111111111111111111111110111111111111111111111 1
b0000 2
b00001111 3
b1111111111111111111111111111111111111111111111111111111111111111111111111111111111111111111111111111111111111111111111111111111111111111111111111111111111111111111111111111111111111111111111111111111111111111111111111111111111111111110111111111111111111111 4
b00010101 5
16
18
1;
b0000 <
b0000 >
b00010101 ?
b1111111111111111111111111111111111111111111111111111111111111111111111111111111111111111111111111111111111111111111111111111111111111111111111111111111111111111111111111111111111111111111111111111111111111111111111111111111111111111110111111111111111111111 @
#95000000
0!
0(
#100000000
1!
1"
1(
1)
b10 +
1,
19
1:
1=
#105000000
0!
0(
#110000000
1!
0"
1(
0)
b11 +
0,
#115000000
0!
0(
#120000000
1!
1#
1(
1*
b00 +
1-
08
0;
#125000000
0!
0(
#130000000
1!
0#
b1111111111111111111111111111111111111111111111111111111111111111111111111111111111111111111111111111111111111111111111111111111111111111111111111111111111111111111111111111111111111111111111111111111111111111111111111111111111111111111111111111111111111101 '
1(
0*
b01 +
0-
b1111111111111111111111111111111111111111111111111111111111111111111111111111111111111111111111111111111111111111111111111111111111111111111111111111111111111111111111111111111111111111111111111111111111111111111111111111111111111111111111111111111111111101 1
b0001 2
b1111111111111111111111111111111111111111111111111111111111111111111111111111111111111111111111111111111111111111111111111111111111111111111111111111111111111111111111111111111111111111111111111111111111111111111111111111111111111111111111111111111111111101 4
b00000001 5
06
18
1;
b0001 <
b0001 >
b00000001 ?
b1111111111111111111111111111111111111111111111111111111111111111111111111111111111111111111111111111111111111111111111111111111111111111111111111111111111111111111111111111111111111111111111111111111111111111111111111111111111111111111111111111111111111101 @
#135000000
0!
0(
#140000000
1!
1"
1(
1)
b10 +
1,
09
0:
0=
#145000000
0!
0(
#150000000
1!
0"
1(
0)
b11 +
0,
#155000000
0!
0(
#160000000
1!
1#
1(
1*
b00 +
1-
08
0;
#165000000
0!
0(
#170000000
1!
0#
b00000111 &
b1111111111111111111111111111111111111111111111111111111111111111111111111111111111111111111111111111111111111111111111111111111111111111111111111111111111111111111111111111111111111111111111111111111111111111111111111111111111111111111111111111111111101111 '
1(
0*
b01 +
0-
b00000111 .
b1111111111111111111111111111111111111111111111111111111111111111111111111111111111111111111111111111111111111111111111111111111111111111111111111111111111111111111111111111111111111111111111111111111111111111111111111111111111111111111111111111111111101111 1
b0000 2
b00000111 3
b1111111111111111111111111111111111111111111111111111111111111111111111111111111111111111111111111111111111111111111111111111111111111111111111111111111111111111111111111111111111111111111111111111111111111111111111111111111111111111111111111111111111101111 4
b00000100 5
16
18
1;
b0000 <
b0000 >
b00000100 ?
b1111111111111111111111111111111111111111111111111111111111111111111111111111111111111111111111111111111111111111111111111111111111111111111111111111111111111111111111111111111111111111111111111111111111111111111111111111111111111111111111111111111111101111 @
#175000000
0!
0(
#180000000
1!
1"
1(
1)
b10 +
1,
19
1:
1=
#185000000
0!
0(
#190000000
1!
0"
1(
0)
b11 +
0,
#195000000
0!
0(
#200000000
1!
1#
1(
1*
b00 +
1-
08
0;
#205000000
0!
0(
#210000000
1!
0#
b1111111111111111111111111111111111111111111111111111111111111111111111111111111111111111111111111111111111111111111111111111111111111111111111111111111111111111111111111111111111111111111111111111111111111111111111111111111111111111111111111111111111011111 '
1(
0*
b01 +
0-
b1111111111111111111111111111111111111111111111111111111111111111111111111111111111111111111111111111111111111111111111111111111111111111111111111111111111111111111111111111111111111111111111111111111111111111111111111111111111111111111111111111111111011111 1
b0001 2
b1111111111111111111111111111111111111111111111111111111111111111111111111111111111111111111111111111111111111111111111111111111111111111111111111111111111111111111111111111111111111111111111111111111111111111111111111111111111111111111111111111111111011111 4
b00000101 5
18
1;
b0001 <
b0001 >
b00000101 ?
b1111111111111111111111111111111111111111111111111111111111111111111111111111111111111111111111111111111111111111111111111111111111111111111111111111111111111111111111111111111111111111111111111111111111111111111111111111111111111111111111111111111111011111 @
#215000000
0!
0(
#220000000
1!
1"
1(
1)
b10 +
1,
#225000000
0!
0(
#230000000
1!
0"
1(
0)
b11 +
0,
#235000000
0!
0(
#240000000
1!
1#
1(
1*
b00 +
1-
08
0;
#245000000
0!
0(
#250000000
1!
0#
b1111111111111111111111111111111111111111111111111111111111111111111111111111111111111111111111111111111111111111111111111111111111111111111111111111111111111111111111111111111111111111111111111111111111111111111111111111111111111111111111101111111111111111 '
1(
0*
b01 +
0-
b1111111111111111111111111111111111111111111111111111111111111111111111111111111111111111111111111111111111111111111111111111111111111111111111111111111111111111111111111111111111111111111111111111111111111111111111111111111111111111111111101111111111111111 1
b0010 2
b1111111111111111111111111111111111111111111111111111111111111111111111111111111111111111111111111111111111111111111111111111111111111111111111111111111111111111111111111111111111111111111111111111111111111111111111111111111111111111111111101111111111111111 4
b00010000 5
18
1;
b0010 <
b0010 >
b00010000 ?
b1111111111111111111111111111111111111111111111111111111111111111111111111111111111111111111111111111111111111111111111111111111111111111111111111111111111111111111111111111111111111111111111111111111111111111111111111111111111111111111111101111111111111111 @
#255000000
0!
0(
#260000000
1!
1"
1(
1)
b10 +
1,
#265000000
0!
0(
#270000000
1!
0"
1(
0)
b11 +
0,
#275000000
0!
0(
#280000000
1!
1#
1(
1*
b00 +
1-
08
0;
#285000000
0!
0(
#290000000
1!
0#
b1111111111111111111111111111111111111111111111111111111111111111111111111111111111111111111111111111111111111111111111111111111111111111111111111111111111111111111111111111111111111111111111111111111111111111111111111111111111111111111111111111111111111101 '
1(
0*
b01 +
0-
b1111111111111111111111111111111111111111111111111111111111111111111111111111111111111111111111111111111111111111111111111111111111111111111111111111111111111111111111111111111111111111111111111111111111111111111111111111111111111111111111111111111111111101 1
b0011 2
b1111111111111111111111111111111111111111111111111111111111111111111111111111111111111111111111111111111111111111111111111111111111111111111111111111111111111111111111111111111111111111111111111111111111111111111111111111111111111111111111111111111111111101 4
b00000001 5
06
18
1;
b0011 <
b0011 >
b00000001 ?
b1111111111111111111111111111111111111111111111111111111111111111111111111111111111111111111111111111111111111111111111111111111111111111111111111111111111111111111111111111111111111111111111111111111111111111111111111111111111111111111111111111111111111101 @
#295000000
0!
0(
#300000000
1!
1"
1(
1)
b10 +
1,
09
0:
0=
#305000000
0!
0(
#310000000
1!
0"
1(
0)
b11 +
0,
#315000000
0!
0(
#320000000
1!
1#
1(
1*
b00 +
1-
08
0;
#325000000
0!
0(
#330000000
1!
0#
b00000010 &
b1111111111111111111111111111111111111111111111111111111111111111111111111111111111111111111111111111111111111111111111111111111111111111111111111111111111111111111111111111111111111111111111111111111111111111111111111111111111111111111111111111111111101111 '
1(
0*
b01 +
0-
b00000010 .
b1111111111111111111111111111111111111111111111111111111111111111111111111111111111111111111111111111111111111111111111111111111111111111111111111111111111111111111111111111111111111111111111111111111111111111111111111111111111111111111111111111111111101111 1
b0000 2
b00000010 3
b1111111111111111111111111111111111111111111111111111111111111111111111111111111111111111111111111111111111111111111111111111111111111111111111111111111111111111111111111111111111111111111111111111111111111111111111111111111111111111111111111111111111101111 4
b00000100 5
16
18
1;
b0000 <
b0000 >
b00000100 ?
b1111111111111111111111111111111111111111111111111111111111111111111111111111111111111111111111111111111111111111111111111111111111111111111111111111111111111111111111111111111111111111111111111111111111111111111111111111111111111111111111111111111111101111 @
#335000000
0!
0(
#340000000
1!
1"
1(
1)
b10 +
1,
19
1:
1=
#345000000
0!
0(
#350000000
1!
0"
1(
0)
b11 +
0,
#355000000
0!
0(
#360000000
1!
1#
1(
1*
b00 +
1-
08
0;
#365000000
0!
0(
#370000000
1!
0#
b1111111111111111111111111111111111111111111111111111111111111111111111111111111111111111111111111111111111111111111111111111111111111111111111111111111111111111111111111111111111111111111111111111111111111111111111111111111111111111111111111111111111011111 '
1(
0*
b01 +
0-
b1111111111111111111111111111111111111111111111111111111111111111111111111111111111111111111111111111111111111111111111111111111111111111111111111111111111111111111111111111111111111111111111111111111111111111111111111111111111111111111111111111111111011111 1
b0001 2
b1111111111111111111111111111111111111111111111111111111111111111111111111111111111111111111111111111111111111111111111111111111111111111111111111111111111111111111111111111111111111111111111111111111111111111111111111111111111111111111111111111111111011111 4
b00000101 5
18
1;
b0001 <
b0001 >
b00000101 ?
b1111111111111111111111111111111111111111111111111111111111111111111111111111111111111111111111111111111111111111111111111111111111111111111111111111111111111111111111111111111111111111111111111111111111111111111111111111111111111111111111111111111111011111 @
#375000000
0!
0(
#380000000
1!
1"
1(
1)
b10 +
1,
#385000000
0!
0(
#390000000
1!
0"
1(
0)
b11 +
0,
#395000000
0!
0(
#400000000
1!
1#
1(
1*
b00 +
1-
08
0;
#405000000
0!
0(
#410000000
1!
0#
b1111111111111111111111111111111111111111111111111111111111111111111111111111111111111111111111111111111111111111111111111111111111111111111111111111111111111111111111111111111111111111111111111111111111111111111111111111111111111111111111111111111110111111 '
1(
0*
b01 +
0-
b1111111111111111111111111111111111111111111111111111111111111111111111111111111111111111111111111111111111111111111111111111111111111111111111111111111111111111111111111111111111111111111111111111111111111111111111111111111111111111111111111111111110111111 1
b0010 2
b1111111111111111111111111111111111111111111111111111111111111111111111111111111111111111111111111111111111111111111111111111111111111111111111111111111111111111111111111111111111111111111111111111111111111111111111111111111111111111111111111111111110111111 4
b00000110 5
18
1;
b0010 <
b0010 >
b00000110 ?
b1111111111111111111111111111111111111111111111111111111111111111111111111111111111111111111111111111111111111111111111111111111111111111111111111111111111111111111111111111111111111111111111111111111111111111111111111111111111111111111111111111111110111111 @
#415000000
0!
0(
#420000000
1!
1"
1(
1)
b10 +
1,
#425000000
0!
0(
#430000000
1!
0"
1(
0)
b11 +
0,
#435000000
0!
0(
#440000000
1!
1#
1(
1*
b00 +
1-
08
0;
#445000000
0!
0(
#450000000
1!
0#
b1111111111111111111111111111111111111111111111111111111111111111111111111111111111111111111111111111111111111111111111111111111111111111111111111111111111111111111111111111111111111111111111111111111111111111111111111111111111111111111111111111111101111111 '
1(
0*
b01 +
0-
b1111111111111111111111111111111111111111111111111111111111111111111111111111111111111111111111111111111111111111111111111111111111111111111111111111111111111111111111111111111111111111111111111111111111111111111111111111111111111111111111111111111101111111 1
b0011 2
b1111111111111111111111111111111111111111111111111111111111111111111111111111111111111111111111111111111111111111111111111111111111111111111111111111111111111111111111111111111111111111111111111111111111111111111111111111111111111111111111111111111101111111 4
b00000111 5
18
1;
b0011 <
b0011 >
b00000111 ?
b1111111111111111111111111111111111111111111111111111111111111111111111111111111111111111111111111111111111111111111111111111111111111111111111111111111111111111111111111111111111111111111111111111111111111111111111111111111111111111111111111111111101111111 @
#455000000
0!
0(
#460000000
1!
1"
1(
1)
b10 +
1,
#465000000
0!
0(
#470000000
1!
0"
1(
0)
b11 +
0,
#475000000
0!
0(
#480000000
1!
1#
1(
1*
b00 +
1-
08
0;
#485000000
0!
0(
#490000000
1!
0#
b1111111111111111111111111111111111111111111111111111111111111111111111111111111111111111111111111111111111111111111111111111111111111111111111111111111111111111111111111111111111111111111111111111111111111111111111111111111111111111111111111111111111111101 '
1(
0*
b01 +
0-
b1111111111111111111111111111111111111111111111111111111111111111111111111111111111111111111111111111111111111111111111111111111111111111111111111111111111111111111111111111111111111111111111111111111111111111111111111111111111111111111111111111111111111101 1
b0100 2
b1111111111111111111111111111111111111111111111111111111111111111111111111111111111111111111111111111111111111111111111111111111111111111111111111111111111111111111111111111111111111111111111111111111111111111111111111111111111111111111111111111111111111101 4
b00000001 5
06
18
1;
b0100 <
b0100 >
b00000001 ?
b1111111111111111111111111111111111111111111111111111111111111111111111111111111111111111111111111111111111111111111111111111111111111111111111111111111111111111111111111111111111111111111111111111111111111111111111111111111111111111111111111111111111111101 @
#495000000
0!
0(
#500000000
1!
1"
1(
1)
b10 +
1,
09
0:
0=
#505000000
0!
0(
#510000000
1!
0"
1(
0)
b11 +
0,
#515000000
0!
0(
#520000000
1!
1#
1(
1*
b00 +
1-
08
0;
